{
    "schedules": [{
            "date": "21 Dec 2017",
            "sponsor": {},
            "introtalks": [{
                    "title": "SecDSM 101",
                    "time": "6:00 PM",
                    "description": "A brief introduction to the group along with any announcements and general communication."
                },
                {
                    "title": "SecDSM News",
                    "time": "6:05 PM",
                    "description": "Quick Review of the Month's InfoSec news.",
                    "speaker": {
                        "name": "James Beal"
                    }
                },
                {
                    "title": "There's Something Wrong with this Picture: Steganography 101",
                    "time": "6:30 PM",
                    "description": "Have you ever been given an image during CTF and had no idea where to start?  If so, this talk is for you.  I will introduce Steganography and cover various CTF challenges I’ve seen over the last year.",
                    "speaker": {
                        "name": "Aaron Tekippe"
                    }
                }
            ],
            "subgroups": [{
                "title": "Des Moines Locksport",
                "description": "A side room will be dedicated to locksport."
                //          "speaker": {
                //            "name": "TOOOL",
                //            "bio": ""
                //          }
            }],
            "tooltalks": [],
            "features": []
        },
        {
            "date": "18 Jan 2018",
            "sponsor": {
                "sponsor": "Palo Alto Networks"
                //      "image": ""
            },
            "introtalks": [{
                    "title": "SecDSM 101",
                    "time": "6:00 PM",
                    "description": "A brief introduction to the group along with any announcements and general communication."
                },
                {
                    "title": "SecDSM News",
                    "time": "6:05 PM",
                    "description": "Quick Review of the Month's InfoSec news.",
                    "speaker": {
                        "name": "James Beal"
                    }
                }
            ],
            "subgroups": [{
                "title": "Des Moines Locksport",
                "description": "A side room will be dedicated to locksport."
                //          "speaker": {
                //            "name": "TOOOL",
                //            "bio": ""
                //          }
            }],
            "tooltalks": [],
            "features": []
        },
        {
            "date": "15 Feb 2018",
            "sponsor": {},
            "introtalks": [{
                    "title": "SecDSM 101",
                    "time": "6:00 PM",
                    "description": "A brief introduction to the group along with any announcements and general communication."
                },
                {
                    "title": "SecDSM News",
                    "time": "6:05 PM",
                    "description": "Quick Review of the Month's InfoSec news.",
                    "speaker": {
                        "name": "James Beal"
                    }
                }
            ],
            "subgroups": [{
                "title": "Des Moines Locksport",
                "description": "A side room will be dedicated to locksport."
                //          "speaker": {
                //            "name": "TOOOL",
                //            "bio": ""
                //          }
            }],
            "tooltalks": [],
            "features": []
        },
        {
            "date": "15 Mar 2018",
            "sponsor": {},
            "introtalks": [{
                    "title": "SecDSM 101",
                    "time": "6:00 PM",
                    "description": "A brief introduction to the group along with any announcements and general communication."
                },
                {
                    "title": "SecDSM News",
                    "time": "6:05 PM",
                    "description": "Quick Review of the Month's InfoSec news.",
                    "speaker": {
                        "name": "James Beal"
                    }
                }
            ],
            "subgroups": [{
                "title": "Des Moines Locksport",
                "description": "A side room will be dedicated to locksport."
                //          "speaker": {
                //            "name": "TOOOL",
                //            "bio": ""
                //          }
            }],
            "tooltalks": [],
            "features": []
        },
        {
            "date": "19 Apr  2018",
            "sponsor": {},
            "introtalks": [{
                    "title": "SecDSM 101",
                    "time": "6:00 PM",
                    "description": "A brief introduction to the group along with any announcements and general communication."
                },
                {
                    "title": "SecDSM News",
                    "time": "6:05 PM",
                    "description": "Quick Review of the Month's InfoSec news.",
                    "speaker": {
                        "name": "James Beal"
                    }
                }
            ],
            "subgroups": [{
                "title": "Des Moines Locksport",
                "description": "A side room will be dedicated to locksport."
                //          "speaker": {
                //            "name": "TOOOL",
                //            "bio": ""
                //          }
            }],
            "tooltalks": [],
            "features": []
        }
    ],
    "cons": [{
            "name": "FloCon 2018",
            "description": "FloCon provides a forum for exploring large-scale, next-generation data analytics in support of security operations.",
            "link": "https://resources.sei.cmu.edu/news-events/events/flocon/",
            "date": "Jan 8 - 11",
            "location": "Tucson, AZ",
            "cost": ""
        },
        {
            "name": "Shmoocon XIV",
            "description": " ShmooCon is an annual east coast hacker convention hell-bent on offering three days of an interesting atmosphere for demonstrating technology exploitation, inventive software and hardware solutions, and open discussions of critical infosec issues.  The first day is a single track of speed talks called One Track Mind.  The next two days bring three tracks:  Build It, Belay It, and Bring It On.",
            "link": "http://shmoocon.org/",
            "date": "January 19 - 21",
            "location": "Washington D.C",
            "cost": "??"
        },
        {
            "name": "CentralCon",
            "description": "The Technology Association of Iowa and HyperStream are proud to announce a new technology event for 2018 - Central Con! Are you curious how the Internet works and what cybersecurity means? Do you like puzzles & challenges? Come join us at Central Con! This FREE event is for current middle school and high school students who want to learn how to protect the Internet through cybersecurity. No previous knowledge required. Bring your laptop if you have one - if not, that\'s ok too! Be ready to have fun and learn! Free swag & prizes and lunch is provided! If bringing a group of 10 or more students, groups must be accompanied by an adult.",
            "link": "http://www.centralcon.tech/",
            "date": "January 27, 2018",
            "location": "Des Moines, IA",
            "cost": "Free"
        },
        {
            "name": "Art Into Science",
            "description": "ART INTO SCIENCE IS A CONFERENCE FOR DEFENSE, ORGANIZED BY DEFENDERS.",
            "link": "https://artintoscience.com/",
            "date": "Jan 30 - Feb 2",
            "location": "Austin, TX",
            "cost": "",
            "details": { //optional
                //        "schedule": [ //optional
                //          {
                //            "day": "Friday",
                //            "date": "May 4th",
                //            "start_time": "??",
                //            "end_time": "??"
                //          },
                //          {
                //            "day": "Saturday",
                //            "date": "May 5th",
                //            "start_time": "??",
                //            "end_time": "??"
                //          }
                //        ],
                "travel": { //optional
                    "depart": {
                        "day": "Monday",
                        "date": "Jan 29",
                        "time": ""
                    },
                    "return": {
                        "day": "Saturday",
                        "date": "Feb 3",
                        "time": "???"
                    }
                }
            }
        },
        {
            "name": "Cyphercon",
            "description": "Welcome to CypherCon 3.0. Wisconsin\'s Hacker Conference! Our conference provides hackers with an outlet to openly demonstrate and experience creativity and ingenuity through hands-on enlightening activities and thought provoking presentations and technical projects. Come listen to over a dozen security speakers, learn at our mind-blowing, but approachable villages (specializations), and relax with friends in a casual environment.",
            "link": "https://cyphercon.com/cyphercon-3-0/",
            "date": "April 12 - 13",
            "location": "Milwaukee, WI",
            "cost": "<p>$175 - Digital Badge</p><p>$125 - Analog Badge</p>",
            "details": { //optional
                //        "schedule": [ //optional
                //          {
                //            "day": "Friday",
                //            "date": "May 4th",
                //            "start_time": "??",
                //            "end_time": "??"
                //          },
                //          {
                //            "day": "Saturday",
                //            "date": "May 5th",
                //            "start_time": "??",
                //            "end_time": "??"
                //          }
                //        ],
                "travel": { //optional
                    "depart": {
                        "day": "Wed",
                        "date": "Apr 11",
                        "time": ""
                    },
                    "return": {
                        "day": "Saturday",
                        "date": "Apr 14",
                        "time": "???"
                    }
                }
            }
        },
        {
            "name": "BSidesIowa",
            "description": "",
            "link": "https://bsidesiowa.com",
            "date": "April 14th, 2018 ",
            "location": "Des Moines, IA",
            "cost": "??"
        },
        {
            "name": "BSidesKC",
            "description": "",
            "link": "https://bsideskc.org/",
            "date": "April 20 - 21",
            "location": "Las Vegas, NV",
            "cost": ""
        },
        {
            "name": "THOTCON",
            "description": "THOTCON is a hacking conference based in Chicago IL, USA. This is a non-profit, non-commercial event looking to provide the best conference possible on a limited budget. ",
            "link": "http://thotcon.org/",
            "date": "May 4 - 5",
            "location": "Chicago, IL",
            "cost": "SOLD OUT",
            "details": { //optional
                "schedule": [ //optional
                    {
                        "day": "Friday",
                        "date": "May 4th",
                        "start_time": "??",
                        "end_time": "??"
                    },
                    {
                        "day": "Saturday",
                        "date": "May 5th",
                        "start_time": "??",
                        "end_time": "??"
                    }
                ],
                "travel": { //optional
                    "depart": {
                        "day": "Thurday",
                        "date": "May 3rd",
                        "time": ""
                    },
                    "return": {
                        "day": "Sunday",
                        "date": "May 5th",
                        "time": "???"
                    }
                }
            }
        },
        {
            "name": "CircleCityCon",
            "description": "Welcome agents to the 5th year of CircleCityCon. This time around our theme is centered around spycraft",
            "link": "https://circlecitycon.com/",
            "date": "Jun 1 - Jun 3",
            "location": "Indianapolis, IN",
            "cost": "$100",
            "details": { //optional
                "schedule": [ //optional
                    {
                        "day": "Friday",
                        "date": "June 1",
                        "start_time": "??",
                        "end_time": "??"
                    },
                    {
                        "day": "Saturday",
                        "date": "June 2",
                        "start_time": "??",
                        "end_time": "??"
                    },
                    {
                        "day": "Sunday",
                        "date": "June 3",
                        "start_time": "??",
                        "end_time": "??"
                    }
                ],
                "travel": { //optional
                    "depart": {
                        "day": "Thurday",
                        "date": "May 31",
                        "time": ""
                    },
                    "return": {
                        "day": "Sunday",
                        "date": "June 3",
                        "time": "???"
                    }
                }
            }
        },
        {
            "name": "ToorCamp",
            "description": "the five day, open air, tech camping event",
            "link": "https://toorcamp.toorcon.net/",
            "date": "Jun 20 - 24",
            "location": "San Juan Islands, WA",
            "cost": ""
        },
        {
            "name": "BSidesLV",
            "description": "",
            "link": "https://www.bsideslv.org/",
            "date": "Aug 7 - 8",
            "location": "Las Vegas, NV",
            "cost": ""
        },
        {
            "name": "DEF CON ",
            "description": "",
            "link": "https://www.defcon.org/",
            "date": "Aug 9 - 12",
            "location": "Las Vegas, NV",
            "cost": ""
        },
        {
            "name": "DerbyCon 8.0",
            "description": "",
            "link": "https://www.derbycon.com/",
            "date": "Oct 3 - 7",
            "location": "Louisville, KY",
            "cost": ""
        }
    ],
    "monthly": [{
            "name": "November",
            "events": [
                //        {
                //          "url": "http://desmoines.issa.org/",
                //          "name": "Des Moines ISSA",
                //          "time": "Nov 27th",
                //          "description": "",
                //          "geolocation": "https://www.google.com/maps/embed?pb=!1m18!1m12!1m3!1d2983.6841943109766!2d-93.78276538456765!3d41.597714279245494!2m3!1f0!2f0!3f0!3m2!1i1024!2i768!4f13.1!3m3!1m2!1s0x0%3A0xe2a3dd2055669cc6!2sFBL+Financial+Group+Inc!5e0!3m2!1sen!2sus!4v1511050024980"
                //        }
            ]
        },
        {
            "name": "December",
            "events": [{
                    "url": "http://seckc.org/",
                    "name": "BUG DRIVE TO HELP THE NEEDY",
                    "time": "December 1",
                    "description": "Meet in #BugDrive in Slack",
                    "geolocation": ""
                },
                {
                    "url": "https://secic.org",
                    "name": "SecIC",
                    "time": "Dec 19th",
                    "description": "The inaugural meeting of SecIC is 6 PM Tuesday, December 19, 2017 at The IC CoLab @ MERGE!  Learn about \"Getting started with ReconNG\" with @gchetrick and \"Weaponizing your (linux) daily driver\" with \@ZuluAlphaFoxTwo!",
                    "geolocation": "https://www.google.com/maps/embed?pb=!1m18!1m12!1m3!1d2980.9465985949996!2d-91.53344804895069!3d41.65689578710499!2m3!1f0!2f0!3f0!3m2!1i1024!2i768!4f13.1!3m3!1m2!1s0x87e441ef5a2e433f%3A0x9f9d77f94f06db8a!2sIC+CoLab!5e0!3m2!1sen!2sus!4v1511995931168"
                }
            ]
        },
        {
            "name": "January",
            "events": [{
                    "url": "http://seckc.org/",
                    "name": "SecKC",
                    "time": "Jan 9",
                    "description": "",
                    "geolocation": ""
                },
                {
                    "url": "http://secmidwest.org/",
                    "name": "SecMidwest",
                    "time": "Jan 9",
                    "description": "WPA2 Vulnerabilities",
                    "geolocation": ""
                },
                {
                    "url": "https://secic.org",
                    "name": "SecIC",
                    "time": "Jan 15",
                    "description": "",
                    "geolocation": "https://www.google.com/maps/embed?pb=!1m18!1m12!1m3!1d2980.9465985949996!2d-91.53344804895069!3d41.65689578710499!2m3!1f0!2f0!3f0!3m2!1i1024!2i768!4f13.1!3m3!1m2!1s0x87e441ef5a2e433f%3A0x9f9d77f94f06db8a!2sIC+CoLab!5e0!3m2!1sen!2sus!4v1511995931168"
                },                
                {
                    "url": "http://desmoines.issa.org/",
                    "name": "Des Moines ISSA",
                    "time": "Jan 22",
                    "description": "",
                    "geolocation": "https://www.google.com/maps/embed?pb=!1m18!1m12!1m3!1d2983.6841943109766!2d-93.78276538456765!3d41.597714279245494!2m3!1f0!2f0!3f0!3m2!1i1024!2i768!4f13.1!3m3!1m2!1s0x0%3A0xe2a3dd2055669cc6!2sFBL+Financial+Group+Inc!5e0!3m2!1sen!2sus!4v1511050024980"
                }
            ]
        },
        {
            "name": "Feburary",
            "events": [{
                    "url": "http://seckc.org/",
                    "name": "SecKC",
                    "time": "Feb 13",
                    "description": "",
                    "geolocation": ""
                },
                {
                    "url": "http://secmidwest.org/",
                    "name": "SecMidwest",
                    "time": "Feb 13",
                    "description": "SSL, 2-Factor Authentication, and More",
                    "geolocation": ""
                },
                {
                    "url": "https://secic.org",
                    "name": "SecIC",
                    "time": "Feb 20",
                    "description": "",
                    "geolocation": "https://www.google.com/maps/embed?pb=!1m18!1m12!1m3!1d2980.9465985949996!2d-91.53344804895069!3d41.65689578710499!2m3!1f0!2f0!3f0!3m2!1i1024!2i768!4f13.1!3m3!1m2!1s0x87e441ef5a2e433f%3A0x9f9d77f94f06db8a!2sIC+CoLab!5e0!3m2!1sen!2sus!4v1511995931168"
                },                 
                {
                    "url": "http://desmoines.issa.org/",
                    "name": "Des Moines ISSA",
                    "time": "Feb 26",
                    "description": "",
                    "geolocation": "https://www.google.com/maps/embed?pb=!1m18!1m12!1m3!1d2983.6841943109766!2d-93.78276538456765!3d41.597714279245494!2m3!1f0!2f0!3f0!3m2!1i1024!2i768!4f13.1!3m3!1m2!1s0x0%3A0xe2a3dd2055669cc6!2sFBL+Financial+Group+Inc!5e0!3m2!1sen!2sus!4v1511050024980"
                }
            ]
        },
        {
            "name": "March",
            "events": [{
                    "url": "http://seckc.org/",
                    "name": "SecKC",
                    "time": "Mar 13",
                    "description": "",
                    "geolocation": ""
                },
                {
                    "url": "http://secmidwest.org/",
                    "name": "SecMidwest",
                    "time": "Mar 13",
                    "description": "Social Engineering",
                    "geolocation": ""
                },
                {
                    "url": "https://secic.org",
                    "name": "SecIC",
                    "time": "Mar 20",
                    "description": "",
                    "geolocation": "https://www.google.com/maps/embed?pb=!1m18!1m12!1m3!1d2980.9465985949996!2d-91.53344804895069!3d41.65689578710499!2m3!1f0!2f0!3f0!3m2!1i1024!2i768!4f13.1!3m3!1m2!1s0x87e441ef5a2e433f%3A0x9f9d77f94f06db8a!2sIC+CoLab!5e0!3m2!1sen!2sus!4v1511995931168"
                },                 
                {
                    "url": "http://desmoines.issa.org/",
                    "name": "Des Moines ISSA",
                    "time": "Mar 26",
                    "description": "",
                    "geolocation": "https://www.google.com/maps/embed?pb=!1m18!1m12!1m3!1d2983.6841943109766!2d-93.78276538456765!3d41.597714279245494!2m3!1f0!2f0!3f0!3m2!1i1024!2i768!4f13.1!3m3!1m2!1s0x0%3A0xe2a3dd2055669cc6!2sFBL+Financial+Group+Inc!5e0!3m2!1sen!2sus!4v1511050024980"
                }
            ]
        },
        {
            "name": "April",
            "events": [{
                    "url": "https://secic.org",
                    "name": "SecIC",
                    "time": "Apr 17",
                    "description": "",
                    "geolocation": "https://www.google.com/maps/embed?pb=!1m18!1m12!1m3!1d2980.9465985949996!2d-91.53344804895069!3d41.65689578710499!2m3!1f0!2f0!3f0!3m2!1i1024!2i768!4f13.1!3m3!1m2!1s0x87e441ef5a2e433f%3A0x9f9d77f94f06db8a!2sIC+CoLab!5e0!3m2!1sen!2sus!4v1511995931168"
                }
            ]
        }
    ]
}